%YAML 1.1
%TAG !u! tag:unity3d.com,2011:
--- !u!114 &11400000
MonoBehaviour:
  m_ObjectHideFlags: 0
  m_PrefabParentObject: {fileID: 0}
  m_PrefabInternal: {fileID: 0}
  m_GameObject: {fileID: 0}
  m_Enabled: 1
  m_EditorHideFlags: 0
  m_Script: {fileID: 11500000, guid: aca229001340d7949b71615e145e31e9, type: 3}
  m_Name: EnemyDatabase
  m_EditorClassIdentifier: 
  DataList:
  - ID: 0
    Name: Walker
    Object: {fileID: 167516, guid: e79c770f372da214cba5990798144b55, type: 2}
