%YAML 1.1
%TAG !u! tag:unity3d.com,2011:
--- !u!114 &11400000
MonoBehaviour:
  m_ObjectHideFlags: 0
  m_PrefabParentObject: {fileID: 0}
  m_PrefabInternal: {fileID: 0}
  m_GameObject: {fileID: 0}
  m_Enabled: 1
  m_EditorHideFlags: 0
  m_Script: {fileID: 11500000, guid: 0335065a4cb949b4c8203109f51fe413, type: 3}
  m_Name: GlobalVariables
  m_EditorClassIdentifier: 
  IsMapView: 1
  MapWidth: 11
  MapLength: 11
